module playground

go 1.17

require (
	github.com/google/uuid v1.1.2
	google.golang.org/api v0.62.0
)

require (
	cloud.google.com/go v0.98.0 // indirect
	github.com/golang/groupcache v0.0.0-20200121045136-8c9f03a8e57e // indirect
	github.com/golang/protobuf v1.5.2 // indirect
	go.opencensus.io v0.23.0 // indirect
	golang.org/x/net v0.0.0-20210503060351-7fd8e65b6420 // indirect
	golang.org/x/oauth2 v0.0.0-20211104180415-d3ed0bb246c8 // indirect
	golang.org/x/sys v0.0.0-20211205182925-97ca703d548d // indirect
	golang.org/x/text v0.3.6 // indirect
	google.golang.org/appengine v1.6.7 // indirect
	google.golang.org/genproto v0.0.0-20211203200212-54befc351ae9 // indirect
	google.golang.org/grpc v1.40.1 // indirect
	google.golang.org/protobuf v1.27.1 // indirect
)
